{
  "project_info": {
    "project_number": "254718022097",
    "firebase_url": "https://bggeotest.firebaseio.com",
    "project_id": "bggeotest",
    "storage_bucket": "bggeotest.appspot.com"
  },
  "client": [
    {
      "client_info": {
        "mobilesdk_app_id": "1:254718022097:android:ba3738f26d943e3c",
        "android_client_info": {
          "package_name": "jp.co.jsk.bggeotest"
        }
      },
      "oauth_client": [
        {
          "client_id": "254718022097-6riihd3050p77vk8mtmgm65qgg1g6f28.apps.googleusercontent.com",
          "client_type": 3
        }
      ],
      "api_key": [
        {
          "current_key": "AIzaSyCxTdWNYhvovc5pcrcOdCHjo_gmzyh-Lsk"
        }
      ],
      "services": {
        "analytics_service": {
          "status": 1
        },
        "appinvite_service": {
          "status": 1,
          "other_platform_oauth_client": []
        },
        "ads_service": {
          "status": 2
        }
      }
    }
  ],
  "configuration_version": "1"
}