‘±@2iGalaxy note 8 with SIMj
GeoLocation Log:
2018-09-11 21:55:47.844 - BackgroundGeolocation ready: [object Object]
2018-09-11 21:55:47.935 - - setConfig: success.
2018-09-11 21:55:51.683 - - Location: {"event":"motionchange","is_moving":true,"uuid":"7a8e9aed-67ce-4fc8-9dbd-9715aee39bb1","timestamp":"2018-09-11T12:55:51.515Z","odometer":0,"coords":{"latitude":35.6804597,"longitude":139.7852442,"accuracy":14.4,"speed":-1,"heading":-1,"altitude":57.9},"activity":{"type":"still","confidence":100},"battery":{"is_charging":false,"level":0.92},"extras":{}}
2018-09-11 21:55:52.141 - - Location: {"is_moving":true,"uuid":"1f9cd584-554a-41b3-9801-b1b32b2cd603","timestamp":"2018-09-11T12:55:51.515Z","odometer":0,"coords":{"latitude":35.6804597,"longitude":139.7852442,"accuracy":14.4,"speed":-1,"heading":-1,"altitude":57.9},"activity":{"type":"still","confidence":100},"battery":{"is_charging":false,"level":0.92},"extras":{}}
2018-09-11 21:55:52.165 - - Location: {"is_moving":true,"uuid":"1f9cd584-554a-41b3-9801-b1b32b2cd603","timestamp":"2018-09-11T12:55:51.515Z","odometer":0,"coords":{"latitude":35.6804597,"longitude":139.7852442,"accuracy":14.4,"speed":-1,"heading":-1,"altitude":57.9},"activity":{"type":"still","confidence":100},"battery":{"is_charging":false,"level":0.92},"extras":{}}
2018-09-11 21:55:52.174 - - resetOdometer: success.
2018-09-11 21:55:52.189 - - onMotionChange: true
2018-09-11 21:58:47.794 - - setConfig: success.
2018-09-11 21:58:51.351 - - Location: {"is_moving":true,"uuid":"fdb4ab62-87e0-4eb7-b27e-3dcd8b90c1c2","timestamp":"2018-09-11T12:58:51.230Z","odometer":0.3,"coords":{"latitude":35.6804572,"longitude":139.7852422,"accuracy":14.4,"speed":-1,"heading":-1,"altitude":58.4},"activity":{"type":"still","confidence":100},"battery":{"is_charging":false,"level":0.91},"extras":{}}
2018-09-11 22:02:10.399 - - Location: {"is_moving":true,"uuid":"99e71020-ab54-45ec-a059-927d46f780f0","timestamp":"2018-09-11T13:02:10.000Z","odometer":51.4,"coords":{"latitude":35.6809169,"longitude":139.7852223,"accuracy":10,"speed":0.97,"heading":344,"altitude":60.3},"activity":{"type":"on_foot","confidence":94},"battery":{"is_charging":false,"level":0.91},"extras":{}}
2018-09-11 22:02:52.394 - - Location: {"is_moving":true,"uuid":"6a5dbcd6-d151-43c3-b3df-de0ae8c7d2c6","timestamp":"2018-09-11T13:02:52.000Z","odometer":101.4,"coords":{"latitude":35.6813325,"longitude":139.7850069,"accuracy":10,"speed":0.86,"heading":46,"altitude":64.9},"activity":{"type":"on_foot","confidence":100},"battery":{"is_charging":false,"level":0.9},"extras":{}}
2018-09-11 22:03:29.418 - - Location: {"is_moving":true,"uuid":"1f8ae996-8a19-48ad-93f0-194b21c57846","timestamp":"2018-09-11T13:03:29.000Z","odometer":152.9,"coords":{"latitude":35.6814835,"longitude":139.785544,"accuracy":10,"speed":1.37,"heading":72,"altitude":65.6},"activity":{"type":"on_foot","confidence":96},"battery":{"is_charging":false,"level":0.9},"extras":{}}
2018-09-11 22:03:58.417 - - Location: {"is_moving":true,"uuid":"9470c82c-17a9-41b9-89ab-93c9e17f0c10","timestamp":"2018-09-11T13:03:58.000Z","odometer":203.6,"coords":{"latitude":35.6817513,"longitude":139.785998,"accuracy":10,"speed":0.68,"heading":20,"altitude":54.5},"activity":{"type":"on_foot","confidence":99},"battery":{"is_charging":false,"level":0.9},"extras":{}}
2018-09-11 22:04:11.383 - - Location: {"is_moving":true,"uuid":"3faa3a62-0019-4485-892f-30380976c903","timestamp":"2018-09-11T13:04:11.000Z","odometer":255.1,"coords":{"latitude":35.6814091,"longitude":139.7863827,"accuracy":11.3,"speed":1.22,"heading":192,"altitude":42.1},"activity":{"type":"on_foot","confidence":100},"battery":{"is_charging":false,"level":0.9},"extras":{}}
2018-09-11 22:04:46.874 - - Location: {"is_moving":true,"uuid":"9891ccc4-3e81-4b6a-b6ad-486a1c54254a","timestamp":"2018-09-11T13:04:46.418Z","odometer":334.5,"coords":{"latitude":35.6820861,"longitude":139.7860977,"accuracy":52.4,"speed":-1,"heading":-1,"altitude":-1},"activity":{"type":"on_foot","confidence":100},"battery":{"is_charging":false,"level":0.9},"extras":{}}
2018-09-11 22:05:10.363 - - Location: {"is_moving":true,"uuid":"525a1168-87ed-4a3c-a7d9-e195fa1313d4","timestamp":"2018-09-11T13:05:07.527Z","odometer":475.5,"coords":{"latitude":35.683145,"longitude":139.7852361,"accuracy":14.2,"speed":-1,"heading":-1,"altitude":31},"activity":{"type":"on_foot","confidence":100},"battery":{"is_charging":false,"level":0.9},"extras":{}}
2018-09-11 22:05:18.443 - - Location: {"is_moving":true,"uuid":"08e27cbf-29b2-4987-8f69-ce699f31792d","timestamp":"2018-09-11T13:05:18.164Z","odometer":550.2,"coords":{"latitude":35.6825841,"longitude":139.7856925,"accuracy":11.6,"speed":-1,"heading":-1,"altitude":31},"activity":{"type":"on_foot","confidence":100},"battery":{"is_charging":false,"level":0.9},"extras":{}}
2018-09-11 22:05:29.515 - - Location: {"is_moving":true,"uuid":"7093b2f4-f127-4174-9b9b-d42e470bd5b9","timestamp":"2018-09-11T13:05:28.746Z","odometer":601.2,"coords":{"latitude":35.6822015,"longitude":139.7860038,"accuracy":14.7,"speed":-1,"heading":-1,"altitude":31},"activity":{"type":"on_foot","confidence":100},"battery":{"is_charging":false,"level":0.9},"extras":{}}
2018-09-11 22:06:06.581 - - Location: {"is_moving":true,"uuid":"c4a39cc5-7007-48f6-8b8f-ad151ace90ce","timestamp":"2018-09-11T13:06:06.310Z","odometer":687.8,"coords":{"latitude":35.6827386,"longitude":139.7853091,"accuracy":99.4,"speed":-1,"heading":-1,"altitude":29.7},"activity":{"type":"on_foot","confidence":99},"battery":{"is_charging":false,"level":0.9},"extras":{}}
2018-09-11 22:06:45.621 - - Location: {"is_moving":true,"uuid":"e6bb2ea4-6ee9-4de8-99e8-b0c305543131","timestamp":"2018-09-11T13:06:42.835Z","odometer":763.9,"coords":{"latitude":35.6833848,"longitude":139.7850287,"accuracy":17.6,"speed":-1,"heading":-1,"altitude":29.7},"activity":{"type":"on_foot","confidence":100},"battery":{"is_charging":false,"level":0.9},"extras":{}}
2018-09-11 22:09:15.425 - - Location: {"is_moving":true,"uuid":"79eef90f-1707-4369-9218-d9df092a0597","timestamp":"2018-09-11T13:09:15.000Z","odometer":828,"coords":{"latitude":35.6839619,"longitude":139.7850601,"accuracy":13.9,"speed":0.42,"heading":297,"altitude":50.6},"activity":{"type":"on_foot","confidence":90},"battery":{"is_charging":false,"level":0.9},"extras":{}}
2018-09-11 22:10:23.411 - - Location: {"is_moving":true,"uuid":"96d78f49-a75f-4331-9dc2-e9a79d0333e9","timestamp":"2018-09-11T13:10:23.000Z","odometer":878.9,"coords":{"latitude":35.684317,"longitude":139.7854163,"accuracy":10,"speed":0.89,"heading":27,"altitude":44.7},"activity":{"type":"on_foot","confidence":99},"battery":{"is_charging":false,"level":0.9},"extras":{}}
2018-09-11 22:15:03.314 - - Location: {"event":"motionchange","is_moving":false,"uuid":"8e073f40-85fd-427a-8e3b-6c36444ce4b1","timestamp":"2018-09-11T13:15:03.046Z","odometer":878.9,"coords":{"latitude":35.6842409,"longitude":139.7857221,"accuracy":14.4,"speed":-1,"heading":-1,"altitude":43.6},"activity":{"type":"still","confidence":100},"battery":{"is_charging":false,"level":0.89},"extras":{}}
2018-09-11 22:15:04.126 - - onMotionChange: false
2018-09-11 22:38:38.376 - - Location: {"event":"motionchange","is_moving":true,"uuid":"015efc65-88db-46d2-b880-61bf5ace7824","timestamp":"2018-09-11T13:38:38.061Z","odometer":891.4,"coords":{"latitude":35.6842363,"longitude":139.7853205,"accuracy":14.7,"speed":-1,"heading":-1,"altitude":-1},"activity":{"type":"on_foot","confidence":98},"battery":{"is_charging":false,"level":0.84},"extras":{}}
2018-09-11 22:38:38.834 - - onMotionChange: true
2018-09-11 22:39:28.360 - - Location: {"is_moving":true,"uuid":"7bd956b4-fa8d-4601-b6db-c772bf81932d","timestamp":"2018-09-11T13:39:28.000Z","odometer":941.8,"coords":{"latitude":35.6838373,"longitude":139.7850545,"accuracy":10,"speed":1.13,"heading":234,"altitude":1.7},"activity":{"type":"on_foot","confidence":98},"battery":{"is_charging":false,"level":0.84},"extras":{}}
2018-09-11 22:40:23.410 - - Location: {"is_moving":true,"uuid":"38f26ead-9dc4-412c-aa2b-4457f090efe7","timestamp":"2018-09-11T13:40:23.000Z","odometer":995.4,"coords":{"latitude":35.6833539,"longitude":139.7850325,"accuracy":17.1,"speed":1.19,"heading":178,"altitude":-25.9},"activity":{"type":"on_foot","confidence":100},"battery":{"is_charging":false,"level":0.83},"extras":{}}
2018-09-11 22:40:34.400 - - Location: {"is_moving":true,"uuid":"258b9a66-d239-4d9f-afef-b5cae860987f","timestamp":"2018-09-11T13:40:34.000Z","odometer":1056.1,"coords":{"latitude":35.6828102,"longitude":139.7849591,"accuracy":16.8,"speed":1.1,"heading":185,"altitude":-45.9},"activity":{"type":"on_foot","confidence":100},"battery":{"is_charging":false,"level":0.83},"extras":{}}
2018-09-11 22:40:47.393 - - Location: {"is_moving":true,"uuid":"d5238d4b-5c9c-4064-9c4f-b8a2543aa5a0","timestamp":"2018-09-11T13:40:47.000Z","odometer":1106.7,"coords":{"latitude":35.6823659,"longitude":139.7848355,"accuracy":15.6,"speed":1.31,"heading":163,"altitude":-69.5},"activity":{"type":"on_foot","confidence":100},"battery":{"is_charging":false,"level":0.83},"extras":{}}
2018-09-11 22:41:19.388 - - Location: {"is_moving":true,"uuid":"5c2c7cd2-69dd-4960-8adc-c3bfbaca03d7","timestamp":"2018-09-11T13:41:19.000Z","odometer":1157.1,"coords":{"latitude":35.6819374,"longitude":139.7850206,"accuracy":20.7,"speed":0.93,"heading":149,"altitude":-98},"activity":{"type":"on_foot","confidence":100},"battery":{"is_charging":false,"level":0.83},"extras":{}}
2018-09-11 22:41:29.412 - - Location: {"is_moving":true,"uuid":"79595a99-bf78-41a1-8687-008bc6ca8027","timestamp":"2018-09-11T13:41:29.000Z","odometer":1259.8,"coords":{"latitude":35.6828301,"longitude":139.785322,"accuracy":10.8,"speed":0.19,"heading":119,"altitude":-1},"activity":{"type":"on_foot","confidence":97},"battery":{"is_charging":false,"level":0.83},"extras":{}}
2018-09-11 22:42:47.367 - - Location: {"is_moving":true,"uuid":"94e0faad-3197-4a1c-8ce5-4f58fb96b01e","timestamp":"2018-09-11T13:42:47.000Z","odometer":1310.8,"coords":{"latitude":35.6824298,"longitude":139.7855981,"accuracy":10.3,"speed":1.22,"heading":164,"altitude":41.6},"activity":{"type":"on_foot","confidence":100},"battery":{"is_charging":false,"level":0.83},"extras":{}}
2018-09-11 22:43:20.383 - - Location: {"is_moving":true,"uuid":"63f4c79c-827c-4d91-9a22-c998f00853c0","timestamp":"2018-09-11T13:43:20.000Z","odometer":1378,"coords":{"latitude":35.6818469,"longitude":139.7858014,"accuracy":10,"speed":1.73,"heading":190,"altitude":-144.1},"activity":{"type":"on_foot","confidence":100},"battery":{"is_charging":false,"level":0.83},"extras":{}}
2018-09-11 22:43:45.362 - - Location: {"is_moving":true,"uuid":"5dfb163f-89d3-4db0-9f3f-62778c49a5b8","timestamp":"2018-09-11T13:43:45.000Z","odometer":1430.3,"coords":{"latitude":35.6815598,"longitude":139.7862588,"accuracy":29,"speed":0,"heading":-1,"altitude":-1},"activity":{"type":"on_foot","confidence":99},"battery":{"is_charging":false,"level":0.83},"extras":{}}
2018-09-11 22:44:40.396 - - Location: {"is_moving":true,"uuid":"2a4d8356-e48d-478a-a9fd-d96291a01f05","timestamp":"2018-09-11T13:44:40.000Z","odometer":1480.4,"coords":{"latitude":35.6812754,"longitude":139.7866896,"accuracy":26.3,"speed":0.44,"heading":132,"altitude":-95.2},"activity":{"type":"on_foot","confidence":100},"battery":{"is_charging":false,"level":0.83},"extras":{}}
2018-09-11 22:47:10.435 - - Location: {"is_moving":true,"uuid":"f5033c67-4df6-44dd-91f7-b00838c1c6b0","timestamp":"2018-09-11T13:47:10.000Z","odometer":1552.9,"coords":{"latitude":35.6806284,"longitude":139.7868009,"accuracy":13.9,"speed":1.01,"heading":260,"altitude":-29.9},"activity":{"type":"on_foot","confidence":97},"battery":{"is_charging":false,"level":0.83},"extras":{}}
2018-09-11 22:47:37.376 - - Location: {"is_moving":true,"uuid":"22a2e0e1-2e60-4f0d-8e28-dcf6aaea504f","timestamp":"2018-09-11T13:47:37.000Z","odometer":1603.6,"coords":{"latitude":35.680804,"longitude":139.7862839,"accuracy":10,"speed":1.5,"heading":233,"altitude":43},"activity":{"type":"on_foot","confidence":99},"battery":{"is_charging":false,"level":0.83},"extras":{}}
2018-09-11 22:48:20.408 - - Location: {"is_moving":true,"uuid":"545a7bd3-69b9-4573-aea7-1c7489075acd","timestamp":"2018-09-11T13:48:20.000Z","odometer":1653.7,"coords":{"latitude":35.6808331,"longitude":139.7857314,"accuracy":10,"speed":1.3,"heading":301,"altitude":40.4},"activity":{"type":"on_foot","confidence":100},"battery":{"is_charging":false,"level":0.82},"extras":{}}
2018-09-11 22:48:57.409 - - Location: {"is_moving":true,"uuid":"a5be88c1-f6a4-4f4a-be94-92ca713a9754","timestamp":"2018-09-11T13:48:57.000Z","odometer":1704.1,"coords":{"latitude":35.6806605,"longitude":139.7852162,"accuracy":10,"speed":1,"heading":148,"altitude":40.7},"activity":{"type":"on_foot","confidence":100},"battery":{"is_charging":false,"level":0.82},"extras":{}}
2018-09-11 22:53:41.448 - - Location: {"event":"motionchange","is_moving":false,"uuid":"69ae62eb-d98d-4199-85be-a0a5df802d94","timestamp":"2018-09-11T13:53:41.250Z","odometer":1704.1,"coords":{"latitude":35.6804655,"longitude":139.7852464,"accuracy":14.5,"speed":-1,"heading":-1,"altitude":58.4},"activity":{"type":"still","confidence":100},"battery":{"is_charging":true,"level":0.83},"extras":{}}
2018-09-11 22:53:41.524 - - onMotionChange: false

Location Info:
2018-09-11 21:55:52.154 - LAT = 35.6804597 : LNG = 139.7852442
(§103-0015 sζPVΤn)
2018-09-11 21:55:52.177 - LAT = 35.6804597 : LNG = 139.7852442
(§103-0015 sζPVΤn)
2018-09-11 21:55:52.186 - LAT = 35.6804597 : LNG = 139.7852442
(§103-0015 sζPVΤn)
2018-09-11 21:58:51.433 - LAT = 35.6804572 : LNG = 139.7852422
(§103-0015 sζPVΤn)
2018-09-11 22:02:11.054 - LAT = 35.6809169 : LNG = 139.7852223
(§103-0015 sζQQΤn)
2018-09-11 22:02:52.715 - LAT = 35.6813325 : LNG = 139.7850069
(§103-0014 sζPΪ, RSΤn)
2018-09-11 22:03:29.742 - LAT = 35.6814835 : LNG = 139.785544
(§103-0014 sζPΪ, RSΤn)
2018-09-11 22:03:58.820 - LAT = 35.6817513 : LNG = 139.785998
(§103-0014 sζPΪ, RTΤn)
2018-09-11 22:04:11.700 - LAT = 35.6814091 : LNG = 139.7863827
(§103-0015 sζρs¬6όό, )
2018-09-11 22:04:47.234 - LAT = 35.6820861 : LNG = 139.7860977
(sζUnnamed Road, )
2018-09-11 22:05:10.967 - LAT = 35.683145 : LNG = 139.7852361
(§103-0014 sζQΪ, RΤn)
2018-09-11 22:05:18.762 - LAT = 35.6825841 : LNG = 139.7856925
(§103-0014 sζQΪ, QΤn)
2018-09-11 22:05:30.023 - LAT = 35.6822015 : LNG = 139.7860038
(§103-0014 sζPΪ, RUΤn)
2018-09-11 22:06:06.934 - LAT = 35.6827386 : LNG = 139.7853091
(§103-0014 sζPΪ, RWΤn)
2018-09-11 22:06:46.065 - LAT = 35.6833848 : LNG = 139.7850287
(§103-0014 sζQΪ, SΤn)
2018-09-11 22:09:15.863 - LAT = 35.6839619 : LNG = 139.7850601
(§103-0014 sζQΪ, TΤn)
2018-09-11 22:10:23.701 - LAT = 35.684317 : LNG = 139.7854163
(§103-0014 sζVε΄Κθ, TΤn)
2018-09-11 22:15:04.118 - LAT = 35.6842409 : LNG = 139.7857221
(§103-0014 sζQΪ, PRΤn)
2018-09-11 22:38:38.819 - LAT = 35.6842363 : LNG = 139.7853205
(§103-0014 sζVε΄Κθ, TΤn)
2018-09-11 22:39:28.785 - LAT = 35.6838373 : LNG = 139.7850545
(§103-0013 sζVε΄Κθ, PΤn)
2018-09-11 22:40:23.861 - LAT = 35.6833539 : LNG = 139.7850325
(§103-0014 sζPΪ, RWΤn)
2018-09-11 22:40:34.687 - LAT = 35.6828102 : LNG = 139.7849591
(§103-0014 sζPΪ, RWΤn)
2018-09-11 22:40:47.682 - LAT = 35.6823659 : LNG = 139.7848355
(§103-0014 sζPΪ, RQΤn)
2018-09-11 22:41:19.806 - LAT = 35.6819374 : LNG = 139.7850206
(§103-0014 sζPΪ, RRΤn)
2018-09-11 22:41:29.727 - LAT = 35.6828301 : LNG = 139.785322
(§103-0014 sζPΪ, RWΤn)
2018-09-11 22:42:47.695 - LAT = 35.6824298 : LNG = 139.7855981
(§103-0014 sζPΪ, RVΤn)
2018-09-11 22:43:20.802 - LAT = 35.6818469 : LNG = 139.7858014
(§103-0014 sζPΪ, RUΤn)
2018-09-11 22:43:45.700 - LAT = 35.6815598 : LNG = 139.7862588
(sζρs¬6όό, )
2018-09-11 22:44:41.037 - LAT = 35.6812754 : LNG = 139.7866896
(sζ)
2018-09-11 22:47:10.853 - LAT = 35.6806284 : LNG = 139.7868009
(§103-0015 sζQTΤn)
2018-09-11 22:47:37.776 - LAT = 35.680804 : LNG = 139.7862839
(§103-0015 sζQSΤn)
2018-09-11 22:48:20.806 - LAT = 35.6808331 : LNG = 139.7857314
(§103-0015 sζQPΤn)
2018-09-11 22:48:57.864 - LAT = 35.6806605 : LNG = 139.7852162
(§103-0015 sζPVΤn)
2018-09-11 22:53:41.516 - LAT = 35.6804655 : LNG = 139.7852464
(§103-0015 sζPVΤn)

Odo Meter:
1704.1449m


ySettingParamsz
activityRecognitionInterval:90000
allowIdenticalLocations:false
autoSync:true
autoSyncThreshold:0
batchSync:false
debug:false
deferTime:0
desiredAccuracy:0
desiredOdometerAccuracy:100
disableElasticity:false
disableStopDetection:false
distanceFilter:50
elasticityMultiplier:1
enableHeadless:false
enableTimestampMeta:false
extras:{}
fastestLocationUpdateInterval:10000
forceReloadOnBoot:false
forceReloadOnGeofence:false
forceReloadOnHeartbeat:false
forceReloadOnLocationChange:false
forceReloadOnMotionChange:false
forceReloadOnSchedule:false
foregroundService:true
geofenceInitialTriggerEntry:true
geofenceProximityRadius:1000
geofenceTemplate:
headers:{}
headlessJobService:com.transistorsoft.cordova.bggeo.HeadlessJobService
heartbeatInterval:300
httpRootProperty:location
httpTimeout:60000
isMoving:true
locationTemplate:
locationTimeout:60
locationUpdateInterval:1000
locationsOrderDirection:ASC
logLevel:5
logMaxDays:3
maxBatchSize:-1
maxDaysToPersist:1
maxRecordsToPersist:-1
method:POST
minimumActivityRecognitionConfidence:75
notificationColor:
notificationLargeIcon:
notificationPriority:0
notificationSmallIcon:
notificationText:Location Service activated
notificationTitle:
params:{}
persist:true
schedule:[]
startOnBoot:false
stationaryRadius:25
stopAfterElapsedMinutes:0
stopOnStationary:true
stopOnTerminate:true
stopTimeout:3
triggerActivities:in_vehicle, on_bicycle, on_foot, running, walking
url:
enabled:true
schedulerEnabled:false
trackingMode:1
odometer:0
isFirstBoot:false
