{
    "AudioToolbox.framework": 2,
    "SystemConfiguration.framework": 2,
    "AVFoundation.framework": 2,
    "libsqlite3.dylib": 1,
    "libz.dylib": 1,
    "QuickLook.framework": 1,
    "Foundation.framework": 1,
    "ImageIO.framework": 1,
    "CoreLocation.framework": 3,
    "CoreTelephony.framework": 1,
    "Social.framework": 1,
    "MessageUI.framework": 1
}