{
  "cordova-plugin-whitelist": {
    "source": {
      "type": "registry",
      "id": "cordova-plugin-whitelist@1"
    },
    "is_top_level": true,
    "variables": {}
  },
  "cordova-background-geolocation-lt": {
    "source": {
      "type": "registry",
      "id": "cordova-background-geolocation-lt@2.13.1"
    },
    "is_top_level": true,
    "variables": {
      "LICENSE": "YOUR_LICENSE_KEY",
      "GOOGLE_API_VERSION": "15.0.1",
      "APPCOMPAT_VERSION": "27.1.1",
      "BACKGROUND_MODE_LOCATION": "<string>location</string>",
      "LOCATION_ALWAYS_AND_WHEN_IN_USE_USAGE_DESCRIPTION": "Always use is required for constant background location-tracking",
      "LOCATION_ALWAYS_USAGE_DESCRIPTION": "Background location-tracking is required",
      "LOCATION_WHEN_IN_USE_USAGE_DESCRIPTION": "Background location-tracking is required",
      "MOTION_USAGE_DESCRIPTION": "Using the accelerometer increases battery-efficiency by intelligently toggling location-tracking only when the device is detected to be moving"
    }
  },
  "cordova-plugin-background-fetch": {
    "source": {
      "type": "registry",
      "id": "cordova-plugin-background-fetch@~5.4.1"
    },
    "is_top_level": false,
    "variables": {}
  },
  "cordova-plugin-cocoalumberjack": {
    "source": {
      "type": "registry",
      "id": "cordova-plugin-cocoalumberjack@~0.0.4"
    },
    "is_top_level": false,
    "variables": {}
  },
  "cordova-android-support-gradle-release": {
    "source": {
      "type": "registry",
      "id": "cordova-android-support-gradle-release"
    },
    "is_top_level": true,
    "variables": {}
  },
  "cordova-plugin-nativegeocoder": {
    "source": {
      "type": "registry",
      "id": "cordova-plugin-nativegeocoder"
    },
    "is_top_level": true,
    "variables": {
      "LOCATION_WHEN_IN_USE_DESCRIPTION": "Use geocoder service"
    }
  },
  "cordova-plugin-add-swift-support": {
    "source": {
      "type": "registry",
      "id": "cordova-plugin-add-swift-support@1.7.1"
    },
    "is_top_level": false,
    "variables": {}
  },
  "cordova-plugin-crosswalk-webview": {
    "source": {
      "type": "registry",
      "id": "cordova-plugin-crosswalk-webview@^2.4.0"
    },
    "is_top_level": true,
    "variables": {
      "XWALK_VERSION": "23+",
      "XWALK_LITEVERSION": "xwalk_core_library_canary:17+",
      "XWALK_COMMANDLINE": "--disable-pull-to-refresh-effect",
      "XWALK_MODE": "embedded",
      "XWALK_MULTIPLEAPK": "true"
    }
  },
  "cordova-plugin-enable-multidex": {
    "source": {
      "type": "registry",
      "id": "cordova-plugin-enable-multidex@^0.1.3"
    },
    "is_top_level": true,
    "variables": {}
  },
  "cordova-plugin-crosswalk-certificate": {
    "source": {
      "type": "registry",
      "id": "cordova-plugin-crosswalk-certificate@^2.0.1"
    },
    "is_top_level": true,
    "variables": {}
  },
  "cordova-plugin-device": {
    "source": {
      "type": "registry",
      "id": "cordova-plugin-device@^2.0.2"
    },
    "is_top_level": true,
    "variables": {}
  },
  "cordova-plugin-splashscreen": {
    "source": {
      "type": "registry",
      "id": "cordova-plugin-splashscreen@^5.0.2"
    },
    "is_top_level": true,
    "variables": {}
  },
  "cordova-plugin-dialogs": {
    "source": {
      "type": "registry",
      "id": "cordova-plugin-dialogs@^2.0.1"
    },
    "is_top_level": true,
    "variables": {}
  },
  "cordova-plugin-statusbar": {
    "source": {
      "type": "registry",
      "id": "cordova-plugin-statusbar@^2.4.2"
    },
    "is_top_level": true,
    "variables": {}
  },
  "cordova-plugin-app-version": {
    "source": {
      "type": "registry",
      "id": "cordova-plugin-app-version@^0.1.9"
    },
    "is_top_level": true,
    "variables": {}
  },
  "cordova-plugin-datepicker": {
    "source": {
      "type": "registry",
      "id": "cordova-plugin-datepicker@^0.9.3"
    },
    "is_top_level": true,
    "variables": {}
  },
  "cordova-plugin-camera": {
    "source": {
      "type": "registry",
      "id": "cordova-plugin-camera@^4.0.3"
    },
    "is_top_level": true,
    "variables": {}
  },
  "cordova-plugin-globalization": {
    "source": {
      "type": "registry",
      "id": "cordova-plugin-globalization@^1.11.0"
    },
    "is_top_level": true,
    "variables": {}
  },
  "cordova-plugin-geolocation": {
    "source": {
      "type": "registry",
      "id": "cordova-plugin-geolocation@^4.0.1"
    },
    "is_top_level": true,
    "variables": {}
  },
  "phonegap-plugin-barcodescanner": {
    "source": {
      "type": "registry",
      "id": "phonegap-plugin-barcodescanner@^8.0.0"
    },
    "is_top_level": true,
    "variables": {
      "ANDROID_SUPPORT_V4_VERSION": "27.+"
    }
  },
  "cordova-plugin-x-socialsharing": {
    "source": {
      "type": "registry",
      "id": "cordova-plugin-x-socialsharing@^5.4.1"
    },
    "is_top_level": true,
    "variables": {}
  },
  "es6-promise-plugin": {
    "source": {
      "type": "registry",
      "id": "es6-promise-plugin@^4.1.0"
    },
    "is_top_level": false,
    "variables": {}
  },
  "cordova-plugin-inappbrowser": {
    "source": {
      "type": "registry",
      "id": "cordova-plugin-inappbrowser@^3.0.0"
    },
    "is_top_level": true,
    "variables": {}
  },
  "cordova-plugin-network-information": {
    "source": {
      "type": "registry",
      "id": "cordova-plugin-network-information@^2.0.1"
    },
    "is_top_level": true,
    "variables": {}
  },
  "cordova-plugin-insomnia": {
    "source": {
      "type": "registry",
      "id": "cordova-plugin-insomnia@^4.3.0"
    },
    "is_top_level": true,
    "variables": {}
  },
  "cordova-plugin-file": {
    "source": {
      "type": "registry",
      "id": "cordova-plugin-file@^6.0.1"
    },
    "is_top_level": true,
    "variables": {}
  },
  "cordova-plugin-file-transfer": {
    "source": {
      "type": "registry",
      "id": "cordova-plugin-file-transfer@^1.7.1"
    },
    "is_top_level": true,
    "variables": {}
  },
  "cordova-plugin-filepath": {
    "source": {
      "type": "registry",
      "id": "cordova-plugin-filepath@^1.4.2"
    },
    "is_top_level": true,
    "variables": {}
  },
  "cordova-open": {
    "source": {
      "type": "registry",
      "id": "cordova-open@^1.0.12"
    },
    "is_top_level": true,
    "variables": {}
  },
  "com-sarriaroman-photoviewer": {
    "source": {
      "type": "registry",
      "id": "com-sarriaroman-photoviewer@^1.1.18"
    },
    "is_top_level": true,
    "variables": {}
  },
  "cordova-plugin-ios-camera-permissions": {
    "source": {
      "type": "registry",
      "id": "cordova-plugin-ios-camera-permissions@^1.2.0"
    },
    "is_top_level": true,
    "variables": {
      "CAMERA_USAGE_DESCRIPTION": "This app needs camera access",
      "MICROPHONE_USAGE_DESCRIPTION": "This app needs microphone access",
      "PHOTOLIBRARY_ADD_USAGE_DESCRIPTION": "This app needs write-access to photo library",
      "PHOTOLIBRARY_USAGE_DESCRIPTION": "This app needs read/write-access photo library access"
    }
  },
  "cordova-plugin-firebase": {
    "source": {
      "type": "registry",
      "id": "cordova-plugin-firebase"
    },
    "is_top_level": true,
    "variables": {}
  },
  "cordova-build-architecture": {
    "source": {
      "type": "registry",
      "id": "https://github.com/MBuchalik/cordova-build-architecture.git#v1.0.4"
    },
    "is_top_level": true,
    "variables": {}
  }
}