{
  "prepare_queue": {
    "installed": [],
    "uninstalled": []
  },
  "config_munge": {
    "files": {}
  },
  "installed_plugins": {
    "com-sarriaroman-photoviewer": {
      "PACKAGE_NAME": "jp.co.jsk.bggeotest"
    },
    "cordova-android-support-gradle-release": {
      "PACKAGE_NAME": "jp.co.jsk.bggeotest"
    },
    "cordova-background-geolocation-lt": {
      "BACKGROUND_MODE_LOCATION": "<string>location</string>",
      "LOCATION_ALWAYS_AND_WHEN_IN_USE_USAGE_DESCRIPTION": "Always use is required for constant background location-tracking",
      "LOCATION_ALWAYS_USAGE_DESCRIPTION": "Background location-tracking is required",
      "LOCATION_WHEN_IN_USE_USAGE_DESCRIPTION": "Background location-tracking is required",
      "MOTION_USAGE_DESCRIPTION": "Using the accelerometer increases battery-efficiency by intelligently toggling location-tracking only when the device is detected to be moving",
      "PACKAGE_NAME": "jp.co.jsk.bggeotest"
    },
    "cordova-open": {
      "PACKAGE_NAME": "jp.co.jsk.bggeotest"
    },
    "cordova-plugin-app-version": {
      "PACKAGE_NAME": "jp.co.jsk.bggeotest"
    },
    "cordova-plugin-camera": {
      "PACKAGE_NAME": "jp.co.jsk.bggeotest"
    },
    "cordova-plugin-crosswalk-certificate": {
      "PACKAGE_NAME": "jp.co.jsk.bggeotest"
    },
    "cordova-plugin-crosswalk-webview": {
      "PACKAGE_NAME": "jp.co.jsk.bggeotest"
    },
    "cordova-plugin-datepicker": {
      "PACKAGE_NAME": "jp.co.jsk.bggeotest"
    },
    "cordova-plugin-device": {
      "PACKAGE_NAME": "jp.co.jsk.bggeotest"
    },
    "cordova-plugin-dialogs": {
      "PACKAGE_NAME": "jp.co.jsk.bggeotest"
    },
    "cordova-plugin-enable-multidex": {
      "PACKAGE_NAME": "jp.co.jsk.bggeotest"
    },
    "cordova-plugin-file": {
      "PACKAGE_NAME": "jp.co.jsk.bggeotest"
    },
    "cordova-plugin-file-transfer": {
      "PACKAGE_NAME": "jp.co.jsk.bggeotest"
    },
    "cordova-plugin-filepath": {
      "PACKAGE_NAME": "jp.co.jsk.bggeotest"
    },
    "cordova-plugin-firebase": {
      "PACKAGE_NAME": "jp.co.jsk.bggeotest"
    },
    "cordova-plugin-geolocation": {
      "PACKAGE_NAME": "jp.co.jsk.bggeotest"
    },
    "cordova-plugin-globalization": {
      "PACKAGE_NAME": "jp.co.jsk.bggeotest"
    },
    "cordova-plugin-inappbrowser": {
      "PACKAGE_NAME": "jp.co.jsk.bggeotest"
    },
    "cordova-plugin-insomnia": {
      "PACKAGE_NAME": "jp.co.jsk.bggeotest"
    },
    "cordova-plugin-ios-camera-permissions": {
      "CAMERA_USAGE_DESCRIPTION": "This app needs camera access",
      "MICROPHONE_USAGE_DESCRIPTION": "This app needs microphone access",
      "PHOTOLIBRARY_ADD_USAGE_DESCRIPTION": "This app needs write-access to photo library",
      "PHOTOLIBRARY_USAGE_DESCRIPTION": "This app needs read/write-access photo library access",
      "PACKAGE_NAME": "jp.co.jsk.bggeotest"
    },
    "cordova-plugin-nativegeocoder": {
      "LOCATION_WHEN_IN_USE_DESCRIPTION": "Use geocoder service",
      "PACKAGE_NAME": "jp.co.jsk.bggeotest"
    },
    "cordova-plugin-network-information": {
      "PACKAGE_NAME": "jp.co.jsk.bggeotest"
    },
    "cordova-plugin-splashscreen": {
      "PACKAGE_NAME": "jp.co.jsk.bggeotest"
    },
    "cordova-plugin-statusbar": {
      "PACKAGE_NAME": "jp.co.jsk.bggeotest"
    },
    "cordova-plugin-whitelist": {
      "PACKAGE_NAME": "jp.co.jsk.bggeotest"
    },
    "cordova-plugin-x-socialsharing": {
      "PACKAGE_NAME": "jp.co.jsk.bggeotest"
    },
    "phonegap-plugin-barcodescanner": {
      "PACKAGE_NAME": "jp.co.jsk.bggeotest"
    },
    "cordova-build-architecture": {
      "PACKAGE_NAME": "jp.co.jsk.bggeotest"
    }
  },
  "dependent_plugins": {
    "cordova-plugin-background-fetch": {
      "PACKAGE_NAME": "jp.co.jsk.bggeotest"
    },
    "cordova-plugin-cocoalumberjack": {
      "PACKAGE_NAME": "jp.co.jsk.bggeotest"
    },
    "cordova-plugin-add-swift-support": {
      "PACKAGE_NAME": "jp.co.jsk.bggeotest"
    },
    "es6-promise-plugin": {
      "PACKAGE_NAME": "jp.co.jsk.bggeotest"
    }
  }
}